c:\Users\USER\agile2\pacemaker-skeleton\src\main\java\models\Activity.java
c:\Users\USER\agile2\pacemaker-skeleton\src\main\java\controllers\RestMain.java
c:\Users\USER\agile2\pacemaker-skeleton\src\main\java\models\User.java
c:\Users\USER\agile2\pacemaker-skeleton\src\main\java\controllers\PacemakerRestService.java
c:\Users\USER\agile2\pacemaker-skeleton\src\main\java\controllers\PacemakerAPI.java
c:\Users\USER\agile2\pacemaker-skeleton\src\main\java\models\Fixtures.java
c:\Users\USER\agile2\pacemaker-skeleton\src\main\java\models\Location.java
